<svg width="365" height="75" viewBox="0 0 365 75" fill="none" xmlns="http://www.w3.org/2000/svg">
<rect width="365" height="75" rx="37.5" fill="white"/>
<path d="M105.392 39.36L107.648 39.936C106.784 42.12 105.296 44.592 103.688 46.128C103.232 45.744 102.416 45.168 101.888 44.88C103.448 43.464 104.792 41.208 105.392 39.36ZM123.488 37.848H117.272V47.28C117.272 48.504 117.032 49.128 116.216 49.488C115.4 49.848 114.176 49.896 112.424 49.896C112.328 49.248 111.992 48.264 111.656 47.64C112.88 47.688 114.104 47.688 114.44 47.664C114.8 47.64 114.92 47.568 114.92 47.256V37.848H111.632V39.384C111.632 42.648 111.104 46.92 106.4 49.92C106.064 49.392 105.248 48.6 104.696 48.216C108.944 45.624 109.352 42.024 109.352 39.312V37.848H102.704V35.688H111.848V32.712H104.96V30.576H111.848V27.888H114.248V30.576H121.256V32.712H114.248V35.688H123.488V37.848ZM118.424 40.08L120.392 39.288C121.76 41.208 123.344 43.776 123.968 45.48L121.856 46.392C121.256 44.712 119.768 42.072 118.424 40.08ZM133.976 40.032H140.096V34.848H134.072V37.104C134.072 38.088 134.048 39.072 133.976 40.032ZM147.584 40.032V42.288H142.448V49.896H140.096V42.288H133.688C133.136 45.264 131.792 48.024 128.696 50.112C128.264 49.632 127.328 48.816 126.704 48.48C129.368 46.752 130.64 44.64 131.216 42.288H126.44V40.032H131.6C131.696 39.096 131.72 38.088 131.72 37.104V34.848H127.184V32.616H131.72V27.96H134.072V32.616H140.096V27.912H142.448V32.616H146.984V34.848H142.448V40.032H147.584ZM162.032 39.24H159.824V35.16C158.264 36.96 156.176 38.616 153.944 39.816H165.416C165.176 40.656 164.912 41.592 164.672 42.456H169.856C169.856 42.456 169.784 43.056 169.736 43.344C169.376 46.8 169.016 48.336 168.32 48.984C167.816 49.488 167.24 49.656 166.4 49.704C165.68 49.752 164.336 49.752 162.92 49.68C162.896 49.056 162.608 48.216 162.224 47.64C163.592 47.76 165.008 47.784 165.56 47.784C165.992 47.784 166.28 47.76 166.52 47.568C166.88 47.232 167.144 46.32 167.408 44.352H161.984C162.248 43.608 162.56 42.672 162.8 41.712H159.152C158.456 45.336 156.896 48.288 151.88 49.968C151.64 49.368 151.04 48.504 150.584 48.072C154.928 46.8 156.248 44.472 156.824 41.712H153.536V40.032C152.768 40.416 151.976 40.776 151.208 41.064C150.872 40.512 150.248 39.696 149.768 39.264C152.504 38.4 155.384 36.768 157.352 34.896H150.584V32.904H159.824V30.864C157.28 31.056 154.688 31.2 152.288 31.272C152.24 30.792 151.976 29.928 151.76 29.472C157.28 29.28 163.76 28.752 167.432 27.912L169.088 29.664C167.072 30.072 164.624 30.432 162.032 30.696V32.904H171.344V34.896H164.624C167.384 36.216 170.456 37.896 172.232 39.12L170.48 40.536C168.656 39.192 165.08 37.176 162.032 35.688V39.24ZM174.128 37.416H195.968V39.864H174.128V37.416ZM204.968 30.888V34.92H208.832V36.984H204.968V37.536C205.904 38.472 208.28 41.208 208.832 41.928L207.488 43.752C207.008 42.888 205.904 41.352 204.968 40.08V49.848H202.736V40.2C201.656 42.744 200.288 45.192 198.872 46.704C198.632 46.08 198.104 45.216 197.696 44.64C199.448 42.888 201.176 39.816 202.184 36.984H198.272V34.92H202.736V31.344C201.488 31.56 200.216 31.704 199.04 31.848C198.944 31.368 198.656 30.624 198.416 30.12C201.56 29.688 205.184 28.944 207.32 28.104L208.808 29.832C207.68 30.264 206.36 30.624 204.968 30.888ZM211.76 44.712H216.44V32.232H211.76V44.712ZM209.6 30.096H218.72V48.624H216.44V46.848H211.76V48.792H209.6V30.096ZM228.944 28.008L230.768 29.304C230.048 30.432 229.16 31.536 228.176 32.592C229.568 35.184 229.832 37.968 229.832 40.776C229.832 44.256 229.496 47.304 228.392 48.768C228.032 49.296 227.504 49.584 226.856 49.704C225.824 49.944 224.672 49.944 223.4 49.872C223.376 49.152 223.136 48.264 222.68 47.64C224.12 47.76 225.224 47.736 225.848 47.664C226.28 47.616 226.52 47.472 226.736 47.16C227.36 46.344 227.624 43.872 227.624 40.728V40.032C226.328 41.712 224.72 43.32 223.28 44.376C222.92 43.824 222.272 43.056 221.72 42.648C223.736 41.424 226.04 39.072 227.336 36.888C227.144 35.952 226.928 35.064 226.52 34.224C225.536 35.136 224.456 35.976 223.4 36.72C223.064 36.216 222.344 35.52 221.864 35.112C223.088 34.32 224.312 33.336 225.416 32.28C224.648 31.248 223.64 30.216 222.32 29.232L223.904 27.936C225.128 28.848 226.112 29.76 226.904 30.72C227.696 29.832 228.368 28.92 228.944 28.008ZM235.88 47.568H240.44C241.712 47.568 241.952 46.824 242.12 43.608C242.672 43.992 243.608 44.4 244.208 44.544C243.896 48.36 243.248 49.704 240.608 49.704H235.664C232.904 49.704 232.04 48.936 232.04 45.936V29.688H242.648V38.208C242.648 39.408 242.384 40.08 241.496 40.416C240.608 40.776 239.144 40.776 237.08 40.776C236.984 40.128 236.648 39.192 236.36 38.568C237.896 38.64 239.456 38.64 239.864 38.616C240.296 38.616 240.416 38.52 240.416 38.16V31.824H234.296V45.96C234.296 47.328 234.536 47.568 235.88 47.568ZM255.608 27.936H258.152C258.128 28.848 258.104 30.096 257.984 31.512C258.32 34.512 259.784 44.088 268.16 47.808C267.512 48.312 266.84 49.104 266.528 49.704C260.888 47.04 258.272 41.76 257 37.464C255.8 41.976 253.256 46.824 247.832 49.824C247.448 49.248 246.728 48.528 245.984 48.048C255.8 42.96 255.536 31.776 255.608 27.936Z" fill="black"/>
<g clip-path="url(#clip0_310_6425)">
<path d="M302.977 40.7344C302.753 40.7344 302.45 41.1461 302.551 41.3736C302.652 41.6011 302.843 41.8719 303.078 41.9044C303.314 41.9369 303.56 41.7094 303.56 41.2002C303.56 40.8969 303.314 40.7344 302.977 40.7344Z" fill="black"/>
<path d="M312.563 28.8584C312.485 28.5659 312.417 27.5909 312.372 27.125C312.249 25.7599 311.442 24.2757 310.758 23.0948C309.94 21.6755 308.863 20.5055 307.596 19.4654C306.52 18.577 305.276 17.7861 303.941 17.3094C302.473 16.7677 297.573 15.771 293.178 16.0419C290.622 16.1935 287.831 17.2986 285.611 18.317C284.994 18.5987 283.492 19.4004 281.698 21.0472C280.431 22.2172 278.402 25.7274 277.841 27.6342C276.832 31.0252 276.742 34.8605 277.505 38.219C277.617 38.7174 278.054 41.0358 278.267 41.7075C278.503 42.4226 278.435 43.7985 278.682 45.1094C278.828 45.9111 280.072 50.1905 280.79 51.3389C281.048 51.7614 281.518 52.1948 281.855 52.5523C282.427 53.1482 283.01 53.7332 283.626 54.2858C285.577 56.03 289.423 57.9368 290.611 58.3052C294.019 59.3561 297.562 59.1935 300.903 58.0018C301.52 57.7851 302.966 56.9726 303.807 56.4309C305.578 55.2933 307.596 52.7798 307.921 52.4223C308.695 51.5773 309.951 49.2588 310.186 48.6738C310.422 48.0887 312.159 42.8234 312.44 41.5125C312.563 40.9492 312.933 36.323 312.967 35.1855C313.023 33.5929 312.967 30.581 312.541 28.8584H312.563ZM279.792 40.7325C279.792 40.7325 279.971 40.6458 280.061 40.375C280.151 40.1041 280.935 38.4465 281.911 37.5365C282.942 36.5831 283.85 35.7272 285.431 35.7272C286.934 35.7272 288.907 37.7423 289.961 38.5982C291.015 39.4541 292.091 41.35 292.091 41.35C292.091 41.35 289.815 44.9902 286.754 44.9902C285.768 44.9902 284.568 44.7194 283.066 44.1885C281.563 43.6576 279.792 40.7325 279.792 40.7325ZM281.563 50.9706C282.314 51.3173 282.572 51.4581 283.346 51.7398C283.738 51.8915 284.478 52.119 285.005 52.2923V54.1016C284.422 53.6466 283.884 53.2132 283.637 52.9965C282.718 52.184 281.563 50.9706 281.563 50.9706ZM285.487 54.4699V52.4548C286.384 52.769 287.281 53.0074 288.178 53.1699L288.38 56.2684C287.909 56.0517 287.438 55.8025 286.967 55.5317C286.642 55.3475 286.07 54.925 285.487 54.4808V54.4699ZM288.884 56.4851L288.671 53.2457C290.039 53.4515 291.396 53.4949 292.764 53.4299V57.8068C291.564 57.4601 290.23 57.0593 288.884 56.4851ZM293.246 57.9151V53.4082C294.378 53.3432 295.522 53.2024 296.665 53.0399C296.811 53.0182 296.945 52.9965 297.091 52.9749L297.596 57.5901C297.405 57.6335 297.226 57.6768 297.035 57.7093C295.97 57.8935 294.389 58.1102 293.257 57.9151H293.246ZM300.533 56.7342C299.726 57.0268 298.907 57.2759 298.067 57.4818L297.573 52.8882C298.571 52.7148 299.558 52.4873 300.533 52.184C300.668 52.1406 300.791 52.0973 300.914 52.054L301.363 56.3659C301.038 56.5284 300.746 56.6476 300.533 56.7234V56.7342ZM301.822 56.1492L301.385 51.9131C302.405 51.5664 303.392 51.1656 304.345 50.7214L304.636 54.4483C303.986 54.9466 302.809 55.64 301.822 56.1492ZM305.096 54.0691L304.816 50.4939C305.713 50.0605 306.576 49.573 307.428 49.053L307.507 51.5989C306.722 52.5415 305.769 53.484 305.096 54.0691ZM308.56 50.1147C308.404 50.3964 308.202 50.6997 307.978 51.0031L307.91 48.7496C308.09 48.6413 308.258 48.5329 308.437 48.4138C308.706 48.1862 309.951 46.9295 309.951 46.9295C309.951 46.9295 309.267 48.8254 308.572 50.1147H308.56ZM308.605 43.1376C308.034 43.8093 307.069 45.0119 304.547 45.1852C302.484 45.3261 300.085 44.8385 298.963 42.1842C298.728 41.6317 298.392 41.5559 298.493 41.4583C298.683 41.2633 298.807 41.3608 299.098 40.7433C299.457 39.9849 300.242 39.0532 302.731 36.9081C305.276 34.7196 306.744 35.6947 307.26 36.1389C307.776 36.5831 309.177 37.6556 309.626 38.3057C310.074 38.9557 310.074 39.5082 310.074 39.5082C310.074 39.5082 309.155 42.4659 308.594 43.1484L308.605 43.1376Z" fill="black"/>
<path d="M287.83 41.9251C288.099 41.9251 288.324 41.5893 288.357 41.1776C288.38 40.885 288.155 40.5275 287.808 40.5275C287.46 40.5275 287.303 40.8309 287.303 41.1559C287.303 41.4809 287.561 41.9251 287.83 41.9359V41.9251Z" fill="black"/>
</g>
<g clip-path="url(#clip1_310_6425)">
<path d="M89.2616 43.4541C89.3924 43.5408 89.6103 43.5624 89.7302 43.5083C89.9264 43.4108 91.9428 41.7315 92.1172 41.3631C92.2915 40.9948 92.9455 34.0935 92.9891 33.6385C93.0327 33.1835 91.8774 32.2084 91.5068 31.9484C92.0954 28.4816 88.2152 16.3908 74.406 16.0117C67.2452 15.8166 62.8529 18.0918 60.0518 21.0603C53.7084 27.8098 54.5586 35.6211 54.5586 35.6211C54.5586 35.6211 53.2834 37.0404 53.0763 37.5387C52.8692 38.0371 53.1635 38.6221 53.2507 39.0122C53.4796 39.9547 54.4932 43.2916 54.5586 43.6708C54.624 44.05 54.8855 44.2883 55.2452 44.4941C55.6049 44.7 57.0545 45.2634 57.0545 45.2634C57.0545 45.2634 56.0082 46.7584 55.8229 47.0185C55.6376 47.2785 55.6376 47.5927 56.5858 47.6577C57.5994 47.7227 58.1117 47.701 58.1117 47.701C58.1117 47.701 59.158 49.5644 59.2452 49.8028C59.3324 50.0411 59.4196 50.2903 59.4196 50.4528C59.4196 50.572 59.376 50.8104 59.2234 51.1354C59.0708 51.4604 58.8638 52.1754 58.8964 52.7605C58.9291 53.3455 59.049 53.5513 59.267 53.1397C59.4741 52.7171 59.6485 52.0238 60.0954 51.5904C60.0954 51.5904 61.1962 53.2047 61.3924 53.6163C61.5776 54.028 61.9591 54.8948 63.8883 56.0757C65.2834 56.9315 68.0845 58.3183 70.0354 58.7191C72.3351 59.1958 75.2779 59.0117 77.8719 58.2425C80.4659 57.4732 82.8746 56.0757 83.6049 55.6098C84.3351 55.1331 84.891 54.7647 85.0436 54.6131C85.2071 54.4506 85.3052 54.3314 85.3052 54.3314C85.3052 54.3314 87.2997 54.9489 88.0191 55.1981C88.5967 55.404 90.0245 55.989 90.6131 56.1082C90.7875 56.1407 90.9509 56.0648 91.0272 55.9023C91.2343 55.4906 91.6376 54.5264 91.703 54.3856C91.7793 54.1905 91.703 54.0172 91.3433 53.8764C90.9836 53.7355 89.5885 53.1613 88.9128 52.858C88.1935 52.533 86.624 51.9479 86.624 51.9479C86.624 51.9479 87.8229 49.3694 88.4223 47.2351C89.0109 45.1009 89.2616 43.4216 89.2616 43.4216V43.4541ZM62.0681 44.2883L61.8065 46.0217C61.0109 45.9784 60.2479 45.6317 60.2479 45.6317C60.8801 45.2742 62.0681 44.2991 62.0681 44.2991V44.2883ZM57.7738 44.0716C57.7738 44.0716 57.752 44.0283 57.752 44.0175C57.5123 43.5299 57.3815 43.1291 57.5994 42.8799C57.7847 42.8041 58.8638 41.8398 59.1362 41.6015C59.4087 41.3631 59.5068 41.5473 59.3651 41.764C59.2452 41.9482 58.188 43.4974 57.7738 44.0716ZM59.9646 49.3586C59.6485 48.6977 59.4414 48.1344 59.2997 47.6902C59.8229 47.7227 60.4768 47.7118 60.7602 47.701C61.0981 47.701 61.4578 47.6468 61.3161 47.8635C61.2071 48.026 60.3569 48.9144 59.9537 49.3586H59.9646ZM63.8011 55.1223C63.4305 54.8189 63.0054 54.3747 62.5913 53.8547C63.0926 53.8872 63.9101 53.9197 64.9455 53.9197C65.2616 53.9197 65.5885 53.9197 65.9373 53.9089L66.2316 56.4548C65.1853 56.0215 64.346 55.5665 63.7902 55.1223H63.8011ZM68.5095 57.2999C67.8992 57.094 67.3215 56.8882 66.7875 56.6715L66.4605 53.8872C67.5722 53.8547 68.8365 53.768 70.1444 53.6163L70.7112 57.7549C69.8719 57.6574 69.0981 57.5057 68.5095 57.2999ZM71.2452 57.8091L70.6567 53.5513C71.0381 53.4972 71.4196 53.443 71.8011 53.378C72.3787 53.2805 73 53.1722 73.6321 53.0638L74.6785 57.8849C73.5885 57.9391 72.3787 57.9066 71.2452 57.7983V57.8091ZM76.8147 57.6574C76.3678 57.7549 75.8011 57.8199 75.1798 57.8633L74.1226 52.9771C75.2452 52.7821 76.4114 52.5655 77.5994 52.3379L78.5804 57.094C77.9591 57.3324 77.3488 57.5382 76.8147 57.6466V57.6574ZM81.7084 51.5146L82.3515 55.3823C81.6321 55.729 80.3678 56.379 79.0817 56.9099L78.1226 52.2404C79.3433 52.0021 80.5531 51.7637 81.7193 51.5146H81.7084ZM89.3379 53.7355C90.1444 54.028 91.0599 54.4181 91.0599 54.4181L90.6349 55.4906C90.6349 55.4906 88.2261 54.5589 87.485 54.3206C86.8202 54.1147 85.1853 53.5405 84.9564 53.4538C84.7166 53.3563 84.5531 53.4322 84.3678 53.7572C84.1717 54.1039 83.6158 54.7756 82.8202 55.1548L82.1989 51.4171C83.7902 51.0704 85.2507 50.7345 86.4605 50.4095C86.0681 51.2437 85.7847 51.7529 85.6321 52.0129C85.5558 52.1538 85.6103 52.3271 85.752 52.3921C86.515 52.7171 88.6839 53.4972 89.3379 53.7355ZM86.7439 49.8028C85.4251 50.1711 83.7357 50.572 81.8719 50.962C80.5531 51.2437 79.158 51.5254 77.7629 51.7962C75.6376 52.2079 73.5232 52.5763 71.7139 52.8905C67.1798 53.6488 62.8964 53.378 62.188 53.3238C61.7411 52.7063 61.3161 52.0238 60.9564 51.3304C60.8365 51.1029 60.782 50.8754 60.6621 50.6695C61.1853 50.0303 62.3624 48.9577 62.3624 48.9577C62.3624 48.9577 62.6458 49.3261 63.0381 49.727C63.4305 50.117 64.2806 50.5395 64.3569 50.572C64.4332 50.6153 64.5204 50.2578 63.9646 49.6078C63.4087 48.9577 63.3869 48.091 63.3869 48.091C63.3869 48.091 64.4986 47.4302 64.8147 47.2568C65.1308 47.0835 65.3924 46.8126 65.0109 46.6934C64.6403 46.5743 63.267 46.1517 63.267 46.1517C63.267 46.1517 63.4741 45.1334 63.8229 44.2233C64.6512 42.0782 66.3188 40.1606 66.3188 40.1606C66.3188 40.1606 71.1144 39.218 76.5531 39.1963C81.1853 39.1747 86.515 40.8323 87.3215 41.0923C87.921 41.2873 88.3896 41.764 88.6621 42.2515C88.6512 43.3024 88.4877 45.5559 87.5068 47.9719C87.2234 48.6761 86.9618 49.2828 86.733 49.792L86.7439 49.8028Z" fill="black"/>
</g>
<defs>
<clipPath id="clip0_310_6425">
<rect x="277" y="16" width="36" height="43" rx="18" fill="white"/>
</clipPath>
<clipPath id="clip1_310_6425">
<rect x="53" y="16" width="40" height="43" rx="20" fill="white"/>
</clipPath>
</defs>
</svg>
