<svg width="365" height="75" viewBox="0 0 365 75" fill="none" xmlns="http://www.w3.org/2000/svg">
<rect width="365" height="75" rx="37.5" fill="white"/>
<path d="M83.992 27.84L82.624 29.616C81.712 28.824 79.792 27.6 78.4 26.784L79.696 25.224C81.064 25.944 83.008 27.096 83.992 27.84ZM82.696 34.056L81.448 35.904C80.488 35.184 78.496 34.056 77.056 33.312L78.256 31.68C79.672 32.304 81.688 33.336 82.696 34.056ZM82.36 37.512L83.992 39C82.744 41.472 81.136 44.352 79.744 46.608L77.848 45.096C79.144 43.296 80.992 40.248 82.36 37.512ZM92.368 43.176H98.992V45.408H83.704V43.176H89.944V29.232H84.904V27H97.768V29.232H92.368V43.176ZM106.384 37.392H117.928V33.168H106.504V34.368C106.504 35.28 106.48 36.336 106.384 37.392ZM106.504 31.104H120.184V40.704H117.928V39.456H106.096C105.64 42.192 104.656 44.952 102.616 47.016C102.28 46.56 101.368 45.744 100.888 45.456C103.96 42.36 104.248 37.824 104.248 34.344V27.24C109.072 26.76 114.592 25.896 117.736 24.888L119.56 26.616C116.008 27.648 111.04 28.392 106.504 28.896V31.104ZM127.84 26.112H130.12V34.248C130.12 38.832 129.76 43.512 126.64 47.088C126.208 46.584 125.32 45.84 124.744 45.48C127.504 42.336 127.84 38.28 127.84 34.248V26.112ZM135.256 27.12H137.536V44.712H135.256V27.12ZM142.912 26.064H145.264V46.848H142.912V26.064ZM154.672 31.536V32.496C155.488 33.48 157.336 35.952 157.792 36.576L156.448 38.448C156.064 37.728 155.344 36.528 154.672 35.448V46.872H152.56V36.096C151.792 38.304 150.832 40.344 149.848 41.688C149.632 41.04 149.128 40.08 148.792 39.528C150.28 37.776 151.744 34.44 152.464 31.536H149.296V29.472H152.56V24.864H154.672V29.472H157.36V31.536H154.672ZM163.144 32.952H160.48V38.328H163.144V32.952ZM165.064 40.224H160.48V41.688H158.632V31.056H165.064V40.224ZM170.968 26.04V28.104H169.192V44.136C169.192 45.528 168.88 46.176 167.992 46.512C167.128 46.872 165.64 46.92 163.504 46.92C163.408 46.296 163.072 45.312 162.76 44.688C164.344 44.76 165.928 44.736 166.36 44.712C166.816 44.712 166.984 44.568 166.984 44.136V28.104H157.552V26.04H170.968ZM189.976 42.384H184.984V46.32H182.872V42.384H178.048V40.584H182.872V38.52H178.552V36.768H180.76C180.568 35.976 180.088 34.896 179.632 34.104L181.384 33.648C181.912 34.488 182.416 35.64 182.632 36.384L181.36 36.768H185.296C185.704 35.808 186.208 34.488 186.448 33.576L188.464 34.032C188.056 34.968 187.648 35.928 187.24 36.768H189.52V38.52H184.984V40.584H189.976V42.384ZM194.488 29.184H184.936C184.84 29.952 184.72 30.696 184.6 31.368H193.408V44.448C193.408 45.648 193.096 46.2 192.256 46.512C191.416 46.848 190.024 46.848 188.128 46.848C187.984 46.296 187.648 45.456 187.336 44.928C188.704 45 190.168 44.976 190.576 44.952C191.008 44.952 191.128 44.832 191.128 44.448V33.432H176.872V46.848H174.64V31.368H182.44C182.512 30.72 182.632 29.952 182.704 29.184H173.512V27.096H182.92C182.992 26.304 183.04 25.536 183.064 24.864L185.512 25.104C185.44 25.752 185.344 26.424 185.248 27.096H194.488V29.184ZM203.968 27.888V31.92H207.832V33.984H203.968V34.536C204.904 35.472 207.28 38.208 207.832 38.928L206.488 40.752C206.008 39.888 204.904 38.352 203.968 37.08V46.848H201.736V37.2C200.656 39.744 199.288 42.192 197.872 43.704C197.632 43.08 197.104 42.216 196.696 41.64C198.448 39.888 200.176 36.816 201.184 33.984H197.272V31.92H201.736V28.344C200.488 28.56 199.216 28.704 198.04 28.848C197.944 28.368 197.656 27.624 197.416 27.12C200.56 26.688 204.184 25.944 206.32 25.104L207.808 26.832C206.68 27.264 205.36 27.624 203.968 27.888ZM210.76 41.712H215.44V29.232H210.76V41.712ZM208.6 27.096H217.72V45.624H215.44V43.848H210.76V45.792H208.6V27.096ZM242.128 29.808H228.52C227.68 36.168 226.048 41.208 222.688 44.64C222.376 44.208 221.392 43.272 220.888 42.864C224.008 39.936 225.472 35.4 226.192 29.808H221.656V27.648H226.432C226.528 26.736 226.6 25.8 226.672 24.816L229.048 24.96C228.976 25.872 228.88 26.784 228.808 27.648H242.128V29.808ZM239.08 39.072L237.328 38.208C237.928 36.816 238.72 34.608 239.08 32.952L241 33.888C240.4 35.664 239.704 37.68 239.08 39.072ZM231.76 38.616L229.72 39.312C229.552 37.8 229.024 35.232 228.52 33.288L230.416 32.736C230.944 34.68 231.52 37.2 231.76 38.616ZM233.8 30.864H236.08C236.008 33.048 235.888 35.088 235.576 36.984C236.944 40.512 239.464 43.512 242.68 45C242.224 45.408 241.552 46.176 241.24 46.776C238.552 45.36 236.392 42.984 234.832 40.032C233.776 43.032 231.784 45.408 227.848 46.92C227.584 46.368 226.984 45.552 226.504 45.12C233.296 42.648 233.584 37.512 233.8 30.864ZM249.256 28.104V32.88C249.256 36.792 248.92 42.576 246.76 46.392C246.352 46.032 245.368 45.456 244.84 45.264C246.88 41.688 247.048 36.528 247.048 32.88V26.064H266.584V28.104H249.256ZM252.784 40.152L254.92 40.848C253.72 42.624 252.064 44.64 250.744 45.936C250.312 45.576 249.424 45 248.872 44.712C250.264 43.512 251.776 41.736 252.784 40.152ZM253.336 35.52V37.44H262.528V35.52H253.336ZM253.336 31.992V33.912H262.528V31.992H253.336ZM264.808 39.168H259V44.568C259 45.648 258.808 46.224 258.016 46.536C257.224 46.848 256.024 46.872 254.248 46.872C254.152 46.272 253.864 45.456 253.6 44.904C254.848 44.928 256.048 44.928 256.384 44.928C256.744 44.904 256.84 44.808 256.84 44.52V39.168H251.152V30.264H255.64C255.976 29.568 256.264 28.848 256.456 28.272L259.096 28.632C258.76 29.184 258.448 29.736 258.112 30.264H264.808V39.168ZM260.656 41.112L262.408 40.152C263.776 41.64 265.672 43.68 266.632 44.928L264.736 46.056C263.872 44.784 262 42.648 260.656 41.112ZM290.248 27.24V29.232H269.8V27.24H278.968C278.776 26.568 278.536 25.8 278.32 25.176L280.576 24.696C280.888 25.464 281.248 26.496 281.488 27.24H290.248ZM274.528 32.712V35.592H285.016V32.712H274.528ZM288.352 37.32L290.2 38.664C288.64 39.792 286.768 40.992 285.184 41.832C286.744 43.128 288.712 44.064 291.112 44.592C290.632 45.048 290.032 45.912 289.72 46.488C284.728 45.144 281.608 42.12 279.832 37.488H279.496C278.704 38.328 277.744 39.12 276.664 39.84V43.992L281.296 42.744C281.272 43.296 281.32 44.208 281.392 44.664C275.344 46.464 274.456 46.752 273.928 47.112C273.808 46.512 273.448 45.48 273.088 44.88C273.664 44.712 274.528 44.328 274.528 43.464V41.136C272.944 41.976 271.288 42.72 269.68 43.248C269.536 42.768 269.08 41.64 268.792 41.136C271.528 40.392 274.576 39.12 276.688 37.488H272.344V30.816H287.32V37.488H281.968C282.448 38.664 283.144 39.696 283.936 40.608C285.472 39.672 287.248 38.328 288.352 37.32Z" fill="black"/>
<path d="M59.2215 22.548C63.4515 19.7601 67.3715 20.4696 67.3715 20.4696C60.4815 16.8024 54.8815 21.0092 54.8815 21.0092C42.4015 16.2328 35.7815 23.9069 35.7815 23.9069C35.7815 23.9069 34.6915 19.0207 34.3815 19.0407C34.0715 19.0607 33.7015 19.2006 31.8415 21.0991C29.9815 22.9976 28.9015 23.9969 28.9015 23.9969C28.9015 23.9969 29.4815 24.4865 30.7115 25.5357C31.9415 26.5849 32.8815 27.8839 32.8815 27.8839C32.8815 27.8839 29.5015 27.0345 28.6715 26.8747C27.8415 26.7148 27.8415 27.1445 28.3415 27.4043C28.8415 27.674 32.3415 29.6425 32.3415 29.6425C29.6715 36.807 32.8115 39.5749 32.8115 39.5749C32.6415 40.2044 32.6415 40.8739 32.6415 40.9738C32.6415 41.0737 31.1715 41.0438 30.9415 41.5034C30.7115 41.973 30.9415 42.7724 31.3715 42.8724C31.8015 42.9723 32.9015 42.8024 32.9015 42.8024C32.9015 42.8024 33.3015 44.2713 33.8015 44.9707C34.3015 45.6702 35.7015 46.4996 35.7015 46.4996C36.1315 47.6986 37.5715 49.0376 37.5715 49.0376C37.5715 49.0376 36.9715 50.4066 36.5715 51.0361C36.1715 51.6656 36.2415 51.9354 36.8015 51.7655C37.3715 51.5956 39.7515 50.5764 39.7515 50.5764C40.4615 50.8063 41.4415 51.2959 41.4415 51.2959C41.4715 52.3151 41.7715 53.5741 42.2915 54.9131C42.8115 56.2521 43.6415 56.1621 44.3715 55.7225C45.1015 55.2828 47.3615 53.5541 47.3615 53.5541C47.3615 53.5541 47.9315 54.4934 48.8115 54.3635C49.6915 54.2336 49.9015 52.9146 49.9015 52.9146C49.9015 52.9146 50.9915 53.3643 52.8015 54.0937C54.6115 54.8132 55.5715 53.9139 55.6115 53.2444C55.6515 52.5749 55.7515 49.1175 55.7515 49.1175C58.6515 46.6395 59.2315 43.9615 59.2315 43.9615C61.9815 42.6026 61.6715 39.6149 61.6715 39.6149C61.6715 39.6149 62.2615 39.485 62.5215 39.1552C62.7815 38.8255 62.6315 37.6963 62.2715 37.6164C61.9015 37.5365 61.4015 37.6264 61.4015 37.6264C61.4515 37.2267 61.3115 36.6272 61.3115 36.6272C61.3115 36.6272 61.5315 36.0876 61.6215 35.3381C61.7115 34.5887 61.6515 33.3097 61.6515 33.3097C62.7515 34.1591 62.9415 38.5257 62.9415 38.5257C66.2915 33.2797 61.7515 28.1137 61.7515 28.1137C64.9515 29.073 66.4715 32.4604 66.8715 33.7094C67.2715 34.9584 67.4615 35.0883 67.4615 35.0883C71.4715 23.2674 59.2215 22.518 59.2215 22.518V22.548ZM59.7015 34.179C59.7015 34.179 60.1815 35.0684 60.4715 36.3474C60.2715 36.0476 60.0115 35.7478 59.6715 35.508C59.6715 34.7886 59.7015 34.179 59.7015 34.179ZM57.1915 33.8793C57.4015 34.259 57.5815 34.5887 57.7415 34.8985C56.8415 34.7586 55.7315 34.6587 54.6515 34.6587C54.6415 34.0092 54.1115 30.7417 53.7815 29.5826C53.7815 29.5826 56.0515 31.8209 57.1815 33.8793H57.1915ZM53.0615 30.5119C53.0615 30.5119 53.8915 33.5495 53.8915 34.6587C53.0715 34.6886 52.3015 34.7786 51.7215 34.9385C49.8515 35.468 48.9515 35.9677 48.4815 36.837C48.0115 37.7063 47.9115 38.7355 47.9115 38.7355C47.9115 38.7355 47.0215 38.4358 46.2215 38.8355C46.2215 38.8355 46.0615 38.3458 45.7615 37.8062C48.0015 36.2574 50.9215 33.8093 53.0515 30.5019L53.0615 30.5119ZM42.5115 32.91C41.4115 34.6087 39.5415 36.2774 39.5415 36.2774C39.1415 36.2774 38.1715 36.4473 38.1715 36.4473L42.5115 32.91ZM43.7515 32.7701L43.0215 36.0676C42.4515 35.9677 41.0215 36.0676 41.0215 36.0676C41.7915 35.468 43.7615 32.7701 43.7615 32.7701H43.7515ZM37.6115 33.1099C37.6115 33.1099 35.6415 37.0668 35.0115 37.5065C34.3815 37.9461 33.3815 38.5457 33.3815 38.5457C33.3815 38.5457 35.1815 35.2782 37.6215 33.1099H37.6115ZM34.6915 44.8908C34.3815 44.5211 34.0815 44.0514 33.9115 43.5119C33.4815 42.1129 33.1115 40.2744 33.9115 39.3451C34.7115 38.4158 36.6115 37.5464 38.6115 37.2467C40.6115 36.9469 42.7115 37.0169 42.7115 37.0169C42.7115 37.0169 42.0815 39.2152 41.9415 39.5549C41.8115 39.8847 41.8715 40.0245 42.5115 39.7548C42.7415 39.6548 43.6815 39.1852 44.9615 38.3658C45.1615 38.6456 45.3615 38.9454 45.4515 39.1552C45.4515 39.1552 45.0915 39.3551 45.0915 39.405C45.0915 39.455 45.3515 40.1345 45.4215 40.1944C45.4915 40.2444 45.7915 40.2943 45.7915 40.2943C45.7915 40.2943 46.0415 42.3727 44.3015 44.0115C42.5615 45.6502 40.2715 46.5495 38.6315 46.5995C37.0015 46.6494 35.7015 46.0499 34.6915 44.9108V44.8908ZM36.7015 46.9692C37.2015 47.1291 38.0215 47.249 39.2815 47.0791C41.7815 46.7494 43.7515 45.4803 44.7515 44.3812C45.7515 43.282 46.2815 42.3128 46.4515 41.4435C46.6215 40.5741 46.4715 40.0345 46.4715 40.0345C46.4715 40.0345 47.1315 39.5849 47.6915 39.9446C47.6915 39.9446 48.2215 44.2413 53.4315 45.1506C55.5715 45.5203 57.2315 45.0607 58.4515 44.3912C58.3615 44.611 58.2315 44.9008 58.0615 45.2305C57.7515 45.2605 57.1415 45.3305 56.3815 45.4204C54.1415 45.6702 50.5515 46.0699 49.2715 46.2597C48.3315 46.3996 45.4815 46.8693 42.7915 47.3089C40.5415 47.6787 38.4115 48.0384 37.6315 48.1683C37.0215 47.4988 36.7215 46.9892 36.7215 46.9892L36.7015 46.9692ZM57.8015 45.6802C57.5315 46.1498 57.1915 46.6694 56.7815 47.169L56.6315 45.8101C57.1015 45.7601 57.5115 45.7102 57.8015 45.6802ZM39.0115 49.4073C38.6215 49.1175 38.2715 48.8178 37.9815 48.528C38.8815 48.3781 40.6915 48.0783 42.6315 47.7586L43.1515 51.0261C41.3415 50.7163 40.0615 50.1867 39.0215 49.4073H39.0115ZM46.2815 51.3458C45.2715 51.2959 44.3815 51.2159 43.5915 51.106L43.0515 47.6986C44.3215 47.4888 45.6215 47.279 46.7215 47.0991L47.2815 51.3658C46.9615 51.3658 46.6315 51.3758 46.2815 51.3658V51.3458ZM47.7115 51.3358L47.1515 47.0192C48.1315 46.8593 48.9115 46.7394 49.3215 46.6794C49.5215 46.6494 49.7915 46.6095 50.0915 46.5795C50.2315 48.1683 50.4215 50.3166 50.4715 50.8562C49.6215 51.106 48.7115 51.2759 47.7215 51.3358H47.7115ZM50.8815 50.7163C50.8215 49.9369 50.6015 47.5687 50.5115 46.5096C51.3315 46.4096 52.3615 46.2897 53.4015 46.1698L53.8415 49.4173C52.9315 49.9069 51.9615 50.3666 50.8815 50.7163ZM54.8215 48.8777C54.6315 48.9876 54.4415 49.0976 54.2415 49.2075L53.8215 46.1298C54.6615 46.0299 55.4815 45.94 56.1915 45.8601L56.3815 47.6087C55.9315 48.0883 55.4115 48.538 54.8115 48.8777H54.8215ZM57.3315 44.1913C52.9815 45.3105 51.1615 43.8616 50.0215 42.7225C48.8815 41.5833 48.6915 40.1744 48.6915 40.1744C48.6915 40.1744 48.9215 39.7448 48.9615 39.5749C48.9915 39.405 48.6915 39.0053 48.6915 39.0053C48.6915 39.0053 48.9915 37.1368 49.7915 36.4373C50.5915 35.7378 52.7615 35.3981 54.0315 35.3681C54.9815 35.3481 56.9015 35.4381 58.1815 35.7179C58.6015 36.5372 58.8115 36.9869 58.9315 37.2367C59.1315 37.6364 59.7615 37.9661 59.7015 36.867C59.7015 36.7371 59.6915 36.5972 59.6815 36.4473C60.1515 36.8969 60.6715 37.9162 60.8715 39.0953C61.2315 41.973 59.2015 43.6917 57.3315 44.1714V44.1913Z" fill="black"/>
<path d="M335.423 31.5979C335.423 31.5979 335.323 31.1682 335.243 30.5487C335.163 29.9292 334.663 26.5218 334.363 25.5725C334.063 24.6233 332.933 24.4434 331.663 23.9438C330.383 23.4442 328.583 22.315 327.913 21.7155C327.243 21.116 325.913 20.6663 325.183 20.4365C324.453 20.2067 322.353 19.4572 319.673 19.0575C316.993 18.6579 314.613 19.737 314.613 19.737C314.613 19.737 313.463 19.6571 311.783 19.737C310.103 19.817 308.003 20.4165 307.603 21.4657C307.203 22.5149 307.123 23.8639 307.123 23.8639C307.123 23.8639 304.693 23.9638 304.173 23.9938C303.653 24.0237 303.423 24.2236 303.223 24.5733C303.023 24.923 302.593 25.7524 302.193 26.8516C301.793 27.9507 301.863 28.4503 301.863 28.4503C301.863 28.4503 300.683 29.7993 300.313 32.6471C299.943 35.4949 300.263 38.7224 300.263 38.7224C300.263 38.7224 299.933 39.7017 300.013 40.1014C300.093 40.5011 301.043 42.9991 301.043 42.9991C301.043 42.9991 300.163 44.6279 300.263 45.4273C300.363 46.2266 301.443 47.8154 301.443 47.8154C301.443 47.8154 301.363 48.1052 301.113 48.9246C300.863 49.7439 300.333 51.8024 300.413 52.3519C300.493 52.9015 301.893 54.2005 302.163 54.3304C302.433 54.4603 302.513 54.5802 302.963 54.91C303.413 55.2397 304.513 55.6594 305.243 55.8892C305.973 56.119 306.293 56.0891 306.293 56.0891C306.293 56.0891 307.993 56.8385 308.393 56.9384C308.793 57.0383 308.893 56.6286 308.623 56.3389C308.623 56.3389 307.973 55.5395 307.643 55.0898C307.313 54.6402 307.353 54.4403 307.413 54.3604C307.583 54.1406 307.573 53.9507 308.163 53.561C309.223 52.8715 310.463 52.9615 310.663 52.9115C310.863 52.8615 311.343 53.2612 312.563 53.8108C313.783 54.3604 316.543 55.3097 318.143 55.3596C319.743 55.4096 321.893 54.5103 323.573 53.7609C325.253 53.0114 326.923 51.7624 326.923 51.7624C326.923 51.7624 327.953 51.9422 328.373 52.212C328.793 52.4818 329.113 52.5018 329.113 52.5018C329.113 52.5018 328.823 52.7416 328.753 53.0914C328.683 53.4411 328.463 54.0906 328.303 54.4703C328.023 55.1198 328.003 55.6494 328.383 55.5195C328.763 55.3896 329.533 54.5403 329.533 54.5403C329.503 55.0199 330.083 54.9599 330.803 54.6102C331.733 54.1705 332.453 52.9914 332.953 52.6317C333.453 52.272 334.533 51.1529 334.853 50.0837C335.183 49.0045 335.003 47.3358 335.003 47.3358C335.003 47.3358 335.133 47.106 335.433 46.2067C335.733 45.3074 336.063 43.5087 336.013 43.109C335.963 42.7094 334.883 41.9799 334.883 41.9799C334.883 41.9799 336.233 40.531 336.763 37.4834C337.293 34.4357 335.383 31.6079 335.383 31.6079L335.423 31.5979ZM305.593 53.7009C305.063 52.4519 304.763 50.7532 304.913 49.2044C305.063 47.6555 305.343 46.4065 305.343 46.4065C305.343 46.4065 305.693 47.5556 305.743 48.5349C305.793 49.5141 306.093 54.2105 307.243 55.7893C307.243 55.7893 306.113 54.9599 305.593 53.7109V53.7009ZM328.793 48.7747C328.443 49.4242 327.593 50.2236 326.963 50.8531C326.333 51.4826 324.863 52.6517 322.683 53.551C320.503 54.4503 318.903 54.7001 318.203 54.7001C317.503 54.7001 317.003 54.5203 315.573 54.1705C314.143 53.8208 311.073 52.4918 309.743 51.7724C308.413 51.0529 307.493 50.1436 307.193 49.5241C306.893 48.9046 306.213 46.9761 306.143 46.5464C306.073 46.1167 306.293 45.4672 306.443 45.1375C306.593 44.8077 307.373 44.1982 308.123 43.6986C308.873 43.199 310.003 42.8492 310.003 42.8492C310.003 42.8492 309.973 43.6486 310.203 44.3281C310.433 45.0076 311.153 45.9269 311.153 45.9269C311.153 45.9269 310.773 46.3765 310.473 46.7762C310.173 47.1759 310.343 47.5057 310.903 47.4257C311.463 47.3458 311.983 46.9961 311.983 46.9961C312.913 48.2151 315.063 48.425 315.313 48.2251C315.563 48.0253 315.343 47.9453 314.833 47.6256C314.323 47.3058 313.783 46.3466 313.783 46.3466C313.783 46.3466 314.833 45.9169 316.163 45.2974C317.493 44.6778 319.913 42.8692 320.763 42.2497C321.613 41.6302 322.293 40.9507 322.693 40.9207C323.093 40.8908 323.473 41.2705 323.623 41.5003C323.773 41.7301 323.773 42.4795 323.573 42.9991C323.373 43.5187 323.023 44.6778 322.623 45.3273C322.223 45.9768 322.653 46.1267 323.023 45.9569C323.393 45.787 324.453 45.1575 325.123 44.5579C325.793 43.9584 326.703 42.6094 326.703 42.6094C326.703 42.6094 326.833 42.4795 326.933 42.4595C327.033 42.4396 327.213 42.2597 327.213 42.2597L327.893 42.9891C327.893 42.9891 327.743 43.3688 327.763 43.8685C327.783 44.3681 327.533 45.4472 327.413 46.2666C327.293 47.086 327.713 46.9461 327.963 46.8162C328.213 46.6863 329.093 45.9169 329.093 45.9169L329.723 46.6163C329.723 46.6163 329.593 46.7962 329.443 47.066C329.293 47.3358 329.163 48.1452 328.813 48.7947L328.793 48.7747ZM312.723 46.8462L313.333 46.5964C313.333 46.5964 313.623 47.2459 313.943 47.5756C313.943 47.5756 313.163 47.3758 312.713 46.8462H312.723ZM335.403 43.3688C335.353 43.9184 334.873 46.3965 334.873 46.3965C334.873 46.3965 334.343 45.1175 334.093 44.6678C333.843 44.2182 333.293 44.468 333.513 44.9177C333.733 45.3673 334.313 46.6963 334.363 48.2151C334.413 49.734 334.113 50.7132 333.363 51.4926C333.363 51.4926 333.643 50.2635 333.563 49.0645C333.483 47.8654 333.383 47.3658 333.183 46.9361C332.983 46.5064 332.453 46.4365 332.633 47.2159C332.813 47.9953 333.013 49.2143 332.813 50.4134C332.613 51.6125 332.213 53.3911 330.033 54.0107C330.033 54.0107 331.363 52.0122 331.633 50.2835C331.913 48.5549 331.983 46.9361 331.913 46.2067C331.843 45.4772 331.283 45.5572 331.313 46.2067C331.343 46.8562 331.493 48.2351 331.163 49.5541C330.833 50.8731 330.363 52.7516 328.983 54.2305C328.983 54.2305 329.713 52.6317 329.983 50.3035C330.253 47.9753 330.413 46.3066 330.113 45.5272C330.113 45.5272 331.813 44.9276 332.513 44.3981C333.213 43.8685 334.493 42.4695 334.493 42.4695C334.493 42.4695 335.443 42.7993 335.393 43.3489L335.403 43.3688ZM335.903 38.8223C335.423 40.5011 333.423 42.8992 332.353 43.6686C331.283 44.438 330.153 44.7678 330.153 44.7678C330.153 44.7678 330.883 43.6187 331.303 42.8892C331.723 42.1598 332.633 40.9907 333.153 39.5918C333.683 38.1928 333.583 36.4142 333.483 35.6448C333.383 34.8754 332.933 35.0153 332.983 35.4449C333.033 35.8746 333.133 36.2743 332.983 38.0429C332.833 39.8116 332.053 40.6709 332.053 40.6709C332.053 40.6709 332.153 40.0914 332.303 38.7724C332.453 37.4434 332.223 36.2743 332.073 35.4949C331.923 34.7155 331.523 33.2167 331.523 33.2167L331.443 34.3158C331.363 35.415 331.643 35.5449 331.693 37.7632C331.743 39.9914 331.163 42.0898 330.163 43.6886C329.163 45.2874 327.913 46.1167 327.913 46.1167C328.393 44.7878 328.413 42.3696 328.293 41.5203C328.173 40.6709 328.393 39.4718 328.743 38.023C329.093 36.5741 328.943 34.6456 328.943 34.6456C328.943 34.6456 328.743 35.325 328.613 35.6248C328.483 35.9246 328.463 37.0037 328.013 38.6025C327.563 40.2013 326.263 42.5495 325.263 43.6586C324.263 44.7678 323.213 45.1874 323.213 45.1874C323.493 44.7378 324.143 43.159 324.293 42.2397C324.443 41.3104 324.443 40.6909 324.493 39.7916C324.543 38.8923 324.393 38.2428 324.393 38.2428C324.393 38.2428 324.973 37.4634 325.293 36.7439C325.613 36.0245 325.643 35.2151 325.673 34.8954C325.703 34.5756 325.323 34.5456 325.243 35.0952C325.163 35.6448 323.763 38.5426 322.043 40.2712C320.323 41.9999 317.713 43.7186 315.913 44.6978C314.113 45.6771 311.013 46.8262 311.013 46.8262C311.793 46.3965 313.213 43.9984 313.963 42.6494C314.713 41.3004 315.493 39.4019 316.093 37.5034C316.693 35.6048 316.473 33.4265 316.443 32.8969C316.413 32.3673 315.963 32.0975 316.043 32.8669C316.123 33.6363 315.913 35.1152 315.913 35.1152C315.913 35.1152 315.533 35.415 314.863 36.614C314.183 37.8131 313.263 39.5618 312.733 41.4603C312.203 43.3589 312.583 43.9584 312.583 43.9584C312.233 44.488 311.603 45.4373 311.603 45.4373C311.603 45.4373 310.923 44.488 310.673 43.6386C310.423 42.7893 310.323 40.8608 310.393 39.3919C310.463 37.923 311.023 35.7947 311.173 35.2151C311.323 34.6356 310.873 34.6855 310.773 34.9653C310.673 35.2451 310.323 36.1444 310.043 37.4934C309.763 38.8423 309.693 41.2205 309.693 41.2205C309.693 41.2205 309.263 41.82 307.963 42.9692C306.663 44.1183 304.763 45.747 304.763 45.747C304.763 45.747 306.243 42.3197 306.713 41.1206C307.183 39.9215 307.443 38.6924 307.413 38.0429C307.383 37.3934 306.933 37.5134 306.933 38.1429C306.933 38.7724 306.333 40.571 306.003 41.5702C305.673 42.5695 304.503 45.0675 304.203 45.717C303.903 46.3665 304.103 46.7962 304.403 46.7463C304.703 46.6963 304.933 46.1667 304.933 46.1667C304.633 47.2958 304.233 50.3635 304.503 52.1221C304.773 53.8808 305.683 55.3696 305.683 55.3696C305.233 55.2397 303.283 54.4403 302.683 53.7409C302.083 53.0414 302.403 51.3427 302.433 50.8631C302.463 50.3835 303.033 49.1344 303.163 48.7347C303.293 48.335 302.883 48.1552 302.733 48.405C302.583 48.6548 302.433 48.9346 302.033 50.1836C301.633 51.4326 301.533 53.1613 301.533 53.1613C301.533 53.1613 301.233 52.9115 301.183 52.5118C301.133 52.1121 301.263 50.4834 301.633 48.9146C302.003 47.3458 302.683 45.9868 302.933 45.5172C303.183 45.0476 302.783 44.8677 302.583 45.2874C302.383 45.707 301.803 47.036 301.803 47.096C301.803 47.1559 301.423 46.5564 301.103 45.6871C300.783 44.8177 300.853 44.3581 301.183 43.8585C301.513 43.3589 302.383 41.9599 302.633 41.3604C302.883 40.7609 303.233 40.561 303.233 40.1813C303.233 39.8016 303.513 39.252 303.413 39.0322C303.313 38.8124 302.963 38.9323 302.763 39.6617C302.563 40.3911 301.483 42.3596 301.483 42.3596C301.483 42.3596 300.983 40.8308 300.783 40.0314C300.583 39.232 300.633 39.1321 300.883 38.9522C301.133 38.7724 301.013 38.5226 301.013 38.5226C301.013 38.5226 301.113 38.3227 301.463 37.7931C301.813 37.2635 302.193 36.2943 302.313 35.5948C302.433 34.8954 301.913 34.6955 301.763 35.415C301.613 36.1344 300.963 37.0137 300.963 37.0137C300.963 37.0137 300.763 35.9845 300.783 34.1659C300.813 32.3373 301.083 30.8685 301.713 29.5894C302.343 28.3104 302.943 28.0906 303.443 27.8408C303.943 27.591 304.123 27.2113 304.493 27.0114C304.863 26.8116 306.243 26.9315 306.623 26.9315C307.003 26.9315 307.123 26.8016 306.853 26.6817C306.583 26.5618 305.803 26.232 305.053 26.3819C304.303 26.5318 302.473 27.611 302.473 27.611C302.473 27.611 303.203 25.8823 303.553 25.2828C303.903 24.6832 304.353 24.6333 305.273 24.5533C306.193 24.4734 307.203 24.7032 307.203 24.7032C307.203 24.7032 307.253 25.1329 307.333 25.6025C307.413 26.0722 307.783 25.9822 307.783 25.6825C307.783 25.3827 307.653 23.4542 307.983 22.2051C308.313 20.9561 309.513 20.6763 310.513 20.4765C311.513 20.2766 313.213 20.4265 313.213 20.4265C313.213 20.4265 312.113 21.106 312.013 21.3758C311.913 21.6456 311.763 21.7055 311.413 21.8254C311.063 21.9453 310.363 23.0545 309.963 23.6041C309.563 24.1536 309.733 24.4834 310.143 24.0537C310.553 23.624 313.273 21.076 313.973 20.6263C314.673 20.1767 316.303 19.727 317.573 19.5971C318.843 19.4672 321.523 19.9469 323.133 20.1967C324.743 20.4465 327.113 21.8954 328.063 22.7447C329.013 23.5941 330.793 24.3934 331.613 24.6732C332.433 24.953 333.093 25.1029 333.593 25.8523C334.093 26.6017 333.723 27.4311 333.773 27.7808C333.823 28.1306 334.623 30.8585 334.623 30.8585C334.623 30.8585 334.223 30.4088 333.673 29.9592C333.123 29.5095 332.293 29.1098 331.843 28.86C331.393 28.6102 331.243 28.6602 331.363 28.86C331.483 29.0599 332.193 29.8592 333.013 30.3888C333.833 30.9184 335.093 32.1175 335.613 33.3865C336.143 34.6655 336.393 37.1336 335.913 38.8124L335.903 38.8223ZM314.073 40.1014L314.323 40.4011L313.193 42.7293C313.193 42.7293 313.093 41.2805 314.073 40.1014Z" fill="black"/>
<path d="M308.322 28.123C307.972 27.9231 307.073 27.9231 306.443 27.9731C305.813 28.023 305.143 28.4227 304.743 29.0023C304.343 29.5818 304.843 29.7017 305.023 29.352C305.203 29.0023 305.723 28.7225 306.273 28.5226C306.823 28.3228 307.642 28.4727 308.002 28.5226C308.702 28.6226 308.682 28.3228 308.332 28.123H308.322Z" fill="black"/>
<path d="M310.803 25.7914C310.653 26.0312 310.303 26.7206 310.323 27.2902C310.343 27.8598 310.723 27.6899 310.803 27.2902C310.883 26.8905 311.103 26.4608 311.233 26.1111C311.363 25.7614 310.973 25.5216 310.803 25.7814V25.7914Z" fill="black"/>
<path d="M323.363 50.1741C323.133 50.304 321.883 51.0534 320.633 51.2033C319.383 51.3532 317.903 51.583 316.603 51.3832C315.303 51.1834 314.423 50.8336 314.103 50.6837C313.783 50.5338 313.473 50.8136 314.103 50.9835C314.513 51.0934 315.453 51.9328 318.133 51.7629C320.813 51.593 322.233 51.1634 322.633 50.9835C323.033 50.8036 323.363 50.6538 323.613 50.5338C323.863 50.4139 323.583 50.0542 323.363 50.1841V50.1741Z" fill="black"/>
</svg>
