<svg width="238" height="82" viewBox="0 0 238 82" fill="none" xmlns="http://www.w3.org/2000/svg">
<path d="M0.5 49H16V34.5H32.5V18H16V1H207V18H221.5V32H237V49H223.5V64.5H237V81H79.5H16V64.5H0.5V49Z" fill="url(#paint0_linear_310_25071)" stroke="#603D1C"/>
<path d="M88.062 44.75H83.085V47.249H88.062V44.75ZM89.931 48.761H83.085V49.895H81.3V43.217H89.931V48.761ZM86.508 40.403H91.632V38.492H86.508V40.403ZM79.935 40.403H84.66V38.492H79.935V40.403ZM84.66 35.216H79.935V36.938H84.66V35.216ZM91.632 35.216H86.508V36.938H91.632V35.216ZM93.585 33.389V49.496C93.585 50.567 93.312 51.05 92.598 51.323C91.884 51.617 90.75 51.659 88.923 51.659C88.839 51.176 88.545 50.399 88.293 49.958C89.49 50.021 90.771 50 91.128 49.979C91.506 49.979 91.632 49.853 91.632 49.496V41.999H79.914C79.788 45.212 79.242 49.118 77.289 51.764C76.953 51.386 76.134 50.735 75.693 50.504C77.793 47.627 78.003 43.469 78.003 40.34V33.389H93.585ZM105.618 37.715V38.513H112.296V37.715H105.618ZM105.618 36.098V36.854H112.296V36.098H105.618ZM105.618 34.481V35.258H112.296V34.481H105.618ZM104.064 41.201V42.272H102.384V40.172H108.033C107.97 39.92 107.865 39.647 107.76 39.395H103.812V33.599H107.361C107.592 33.158 107.823 32.696 107.949 32.339L109.944 32.57C109.713 32.948 109.461 33.284 109.209 33.599H114.186V39.395H109.755C109.881 39.647 110.007 39.92 110.091 40.172H115.635V42.125H113.871V41.201H111.855V42.062C111.855 42.398 111.876 42.545 112.317 42.545H113.85C114.186 42.545 114.942 42.524 115.215 42.44C115.236 42.839 115.236 43.049 115.32 43.427C115.068 43.511 114.417 43.532 113.934 43.532H111.582C110.406 43.532 110.238 42.944 110.238 42.041V41.201H108.432C107.781 42.713 106.353 43.385 103.392 43.847C103.245 43.511 102.888 43.049 102.615 42.839C104.946 42.545 106.08 42.083 106.626 41.201H104.064ZM101.292 35.888L99.633 36.518C99.318 35.573 98.667 34.103 98.205 32.99L99.801 32.486C100.305 33.599 100.956 35.006 101.292 35.888ZM111.771 46.955H107.34C106.647 48.047 105.492 48.866 103.476 49.391C104.673 49.748 106.164 49.811 107.907 49.811C110.532 49.811 114.039 49.601 116.37 49.349C116.139 49.832 115.845 50.714 115.824 51.218C114.165 51.323 110.28 51.449 107.844 51.449C105.093 51.449 103.308 51.218 101.754 50.336C100.914 49.853 100.179 49.139 99.717 49.139C99.255 49.139 98.52 50.462 97.932 51.743L96.693 50.063C97.365 49.181 98.016 48.446 98.625 47.984C99.213 46.808 99.696 45.233 100.032 43.721H97.47C98.058 42.461 98.73 40.739 99.318 39.101H97.008V37.379H101.817C101.313 38.849 100.641 40.55 100.074 42.02H100.977L101.271 41.957L102.09 42.272C101.733 44.12 101.145 46.136 100.473 47.732C100.872 47.942 101.355 48.341 102.09 48.803C102.51 49.034 102.951 49.244 103.455 49.37C103.287 48.971 102.846 48.383 102.531 48.089C105.009 47.564 105.933 46.619 106.353 45.233H102.615V44.057H108.117C107.97 43.7 107.802 43.364 107.655 43.049L109.251 42.671C109.503 43.091 109.755 43.595 109.944 44.057H115.488V45.233H108.033C107.97 45.443 107.928 45.653 107.844 45.842H113.661C113.661 45.842 113.64 46.241 113.598 46.43C113.346 47.774 113.073 48.446 112.653 48.782C112.296 49.055 111.876 49.139 111.393 49.139C110.931 49.16 110.049 49.16 109.146 49.097C109.125 48.761 108.978 48.278 108.789 47.963C109.629 48.047 110.406 48.047 110.721 48.047C110.994 48.047 111.162 48.026 111.309 47.9C111.498 47.753 111.645 47.501 111.771 46.955ZM134.997 35.468L133.212 36.119C133.023 35.342 132.456 34.103 131.952 33.2L133.653 32.633C134.178 33.515 134.766 34.691 134.997 35.468ZM127.374 34.544V36.266H118.155V34.544H122.166C121.935 33.998 121.662 33.347 121.41 32.843L123.216 32.36C123.594 33.032 124.035 33.935 124.266 34.544H127.374ZM122.565 39.941L121.599 41.012C121.389 40.718 121.032 40.319 120.633 39.92C120.192 40.97 119.625 41.894 118.995 42.629C118.722 42.335 118.134 41.747 117.756 41.495C118.869 40.298 119.625 38.429 120.024 36.455L121.62 36.791C121.515 37.379 121.347 37.967 121.158 38.534C121.704 38.996 122.292 39.542 122.565 39.941ZM119.835 46.262L121.473 46.577C121.053 48.068 120.318 49.559 119.499 50.525C119.205 50.294 118.47 49.895 118.092 49.706C118.89 48.803 119.499 47.522 119.835 46.262ZM127.5 45.212H123.909V51.575H122.061V45.212H118.071V43.49H122.061V42.104H122.943C122.649 41.81 122.187 41.453 121.893 41.264C122.985 40.13 123.72 38.408 124.098 36.581L125.673 36.896C125.547 37.526 125.358 38.156 125.148 38.744C125.904 39.542 126.765 40.508 127.206 41.138L126.03 42.104C125.694 41.6 125.127 40.886 124.539 40.193C124.203 40.928 123.783 41.579 123.342 42.104H123.909V43.49H127.5V45.212ZM124.434 46.682L125.883 46.178C126.576 47.27 127.29 48.698 127.605 49.643L126.051 50.231C125.757 49.286 125.085 47.795 124.434 46.682ZM130.167 46.325V48.845H132.582V46.325H130.167ZM132.582 40.508V38.072H130.167V40.508H132.582ZM132.582 44.666V42.167H130.167V44.666H132.582ZM137.055 48.845V50.609H130.167V51.596H128.403V40.277C128.214 40.571 128.025 40.844 127.857 41.096C127.521 40.781 126.786 40.13 126.366 39.857C127.815 38.03 129.012 35.216 129.726 32.444L131.553 32.864C131.217 34.04 130.818 35.216 130.377 36.329H136.929V38.072H134.325V40.508H136.74V42.167H134.325V44.666H136.74V46.325H134.325V48.845H137.055ZM155.367 39.101H150.894C148.731 39.101 148.185 38.366 148.185 36.539V32.444H150.138V34.019H156.669V35.594H150.138V36.56C150.138 37.232 150.285 37.505 151.041 37.505H155.241C155.913 37.505 156.984 37.442 157.446 37.358C157.509 37.904 157.572 38.513 157.656 38.954C157.194 39.059 156.228 39.101 155.367 39.101ZM142.704 39.269V36.476C141.906 37.001 141.108 37.505 140.31 37.904C140.016 37.526 139.323 36.833 138.903 36.497C141.15 35.531 143.544 33.935 144.951 32.255L146.694 32.927C146.106 33.683 145.371 34.397 144.573 35.048V39.269H142.704ZM145.266 48.278L147.072 49.097C145.371 50.126 142.725 51.134 140.625 51.722C140.289 51.323 139.596 50.609 139.155 50.252C141.318 49.832 143.817 49.097 145.266 48.278ZM143.691 45.8V47.018H153.54V45.8H143.691ZM143.691 43.427V44.603H153.54V43.427H143.691ZM143.691 41.054V42.251H153.54V41.054H143.691ZM155.493 48.257H151.818C153.96 48.971 156.27 49.853 157.698 50.525L156.018 51.638C154.737 50.945 152.511 49.979 150.348 49.244L151.545 48.257H141.801V39.815H155.493V48.257Z" fill="white"/>
<defs>
<linearGradient id="paint0_linear_310_25071" x1="162.5" y1="28" x2="91.5" y2="116" gradientUnits="userSpaceOnUse">
<stop offset="0.4" stop-color="#3B220E"/>
<stop offset="1" stop-color="#130A04"/>
</linearGradient>
</defs>
</svg>
